Simulation Stimulation: AFL Season 2018 | The New Golden Hammer
…
The draw rate, \(\frac{7}{990} \approx 0.007\), was based on the likelihood of drawing a game over the past 5 years.

The probability of B winning is calculated in the same manner as above, except with \(b-a\).

Finally, a draw is the remaining probability: \(P(Draw)= 1 - P(A\>wins) - P(B\>wins)\). This means that the draw rate will be greater for greater rankings differentials, and greater for greater weight parameters.

The Data

pointstidy

## # A tibble: 792 x 4
##    HorA  Team                   FororAgainst Points
##    <chr> <chr>                  <chr>         <dbl>
##  1 H     Richmond               For             121
##  2 H     Essendon               For              99
##  3 H     St Kilda               For             107
##  4 H     Port Adelaide          For             110
##  5 H     Gold Coast             For              55
##  6 H     Hawthorn               For             101
##  7 H     Greater Western Sydney For             133
##  8 H     Melbourne              For              94
##  9 H     West Coast             For              86
## 10 H     Adelaide               For             118
## # ... with 782 more rows

fixture2019

## # A tibble: 198 x 2
##    Hometeam               Awayteam       
##    <chr>                  <chr>          
##  1 Carlton                Richmond       
##  2 Collingwood            Geelong        
##  3 Melbourne              Port Adelaide  
##  4 Adelaide               Hawthorn       
##  5 Brisbane Lions         West Coast     
##  6 Western Bulldogs       Sydney         
##  7 St Kilda               Gold Coast     
##  8 Greater Western Sydney Essendon       
##  9 Fremantle              North Melbourne
## 10 Richmond               Collingwood    
## # ... with 188 more rows
…
